<svg width="50" height="80" viewBox="0 0 50 80" fill="none" xmlns="http://www.w3.org/2000/svg">
<path d="M25.95 33.95C16.6 33.95 9 26.35 9 17C9 7.65 16.6 0 25.95 0C35.3 0 42.9 7.6 42.9 16.95C42.9 26.3 35.3 33.95 25.95 33.95ZM25.95 9.7C21.95 9.7 18.7 12.95 18.7 16.95C18.7 20.95 21.95 24.2 25.95 24.2C29.95 24.2 33.2 20.95 33.2 16.95C33.2 12.95 29.95 9.7 25.95 9.7Z" fill="white"/>
<path d="M41.25 80L27.95 55.4501C26.6 58.5501 24.85 61.4501 22.7 64.1001C17.5 70.4001 10.25 74.9001 2.2 76.75L0 67.3C5.85 65.95 11.15 62.65 14.95 58.05C18.85 53.3 20.95 47.5001 20.95 41.3501L30.25 39.05L50 75.4L41.25 80Z" fill="white"/>
</svg>
